eBird Status and Trends - 2 eBird Trends Data Products
…
2.4.1 Vector (points)

The tabular trends data can be converted into point vector features for use with the sf package using the sf function st_as_sf().

trends_sf <- st_as_sf(trends_sagthr, 
                      coords = c("longitude", "latitude"), 
                      crs = 4326)
print(trends_sf)
#> Simple feature collection with 2462 features and 15 fields
#> Geometry type: POINT
#> Dimension:     XY
#> Bounding box:  xmin: -122 ymin: 33.5 xmax: -103 ymax: 49.4
#> Geodetic CRS:  WGS 84
#> # A tibble: 2,462 × 16
#>   species_code season   start_year end_year start_date end_date srd_id      abd
#> * <chr>        <chr>         <int>    <int> <chr>      <chr>     <int>    <dbl>
#> 1 sagthr       breeding       2012     2022 05-17      07-12    254264 0.000527
#> 2 sagthr       breeding       2012     2022 05-17      07-12    255764 0.0147  
#> 3 sagthr       breeding       2012     2022 05-17      07-12    255765 0.000214
#> 4 sagthr       breeding       2012     2022 05-17      07-12    257264 0.00174 
#> 5 sagthr       breeding       2012     2022 05-17      07-12    257265 0.0132  
#> 6 sagthr       breeding       2012     2022 05-17      07-12    257266 0.00118 
#> # ℹ 2,456 more rows
#> # ℹ 8 more variables: abd_ppy <dbl>, abd_ppy_lower <dbl>, abd_ppy_upper <dbl>,
#> #   abd_ppy_nonzero <lgl>, abd_trend <dbl>, abd_trend_lower <dbl>,
#> #   abd_trend_upper <dbl>, geometry <POINT [°]>
…
Tip

The above map shows the percent per year trend, which is different from the trends maps on the Status and Trends website that show cumulative trend. These are two different representation of the same data and we can convert between the two using the exponential growth formula. For example, a 1% annual decline equates to a -9.6% cumulative decline from 2012-2022.

trend_ppy <- -1
(trend_cumulative <- 100 * ((1 + trend_ppy / 100)^(2022 - 2012) - 1))
#> [1] -9.56

2.5 Uncertainty

Recall that the trends data frame contained estimates of uncertainty in the relative abundance trend given as 80% confidence intervals. How were these confidence intervals calculated? The model used to estimate trends produces an ensemble of 100 estimates for each grid cell, each based on a random subsample of eBird data. This ensemble of estimates is used to quantify uncertainty in the trends estimates. The estimated trend is the median across the ensemble, and the 80% confidence intervals are the lower 10th and upper 90th percentiles across the ensemble. Those wishing to access estimates from the individual folds making up the ensemble can use fold_estimates = TRUE when loading data. These fold-level estimates can be used to quantify uncertainty, for example, when calculating the trend for a given region. For example, let’s load the fold-level estimates for Sage Thrasher:

trends_sagthr_folds <- load_trends("sagthr", fold_estimates = TRUE)
print(trends_sagthr_folds)
#> # A tibble: 246,200 × 8
#>   species_code season    fold srd_id latitude longitude      abd abd_ppy
#>   <chr>        <chr>    <dbl>  <int>    <dbl>     <dbl>    <dbl>   <dbl>
#> 1 sagthr       breeding     1 254264     49.4     -120. 0.000527   -3.11
#> 2 sagthr       breeding     1 255764     49.1     -120. 0.0147     -2.97
#> 3 sagthr       breeding     1 255765     49.1     -119. 0.000214   -2.25
#> 4 sagthr       breeding     1 257264     48.9     -120. 0.00174    -4.53
#> 5 sagthr       breeding     1 257265     48.9     -120. 0.0132     -3.86
#> 6 sagthr       breeding     1 257266     48.9     -119. 0.00118    -4.04
#> # ℹ 246,194 more rows
…
